<svg xmlns="http://www.w3.org/2000/svg" fill="none" viewBox="0 0 62 62">
  <path fill="#2BA84B" fill-rule="evenodd" d="M18.574 48.6913v-4.123H17v-1.049h4.286v1.049h-1.574v4.123h-1.138zM26.4165 48.0001c-.524.52-1.181.7801-1.969.7801s-1.442-.259-1.961-.776c-.52-.517-.779-1.15-.779-1.899 0-.744.262-1.375.786-1.895s1.181-.779 1.969-.779 1.442.258 1.962.775c.519.518.779 1.151.779 1.899 0 .744-.262 1.3759-.787 1.8949zm-3.077-.7419c.295.315.67.473 1.123.473.453 0 .825-.157 1.116-.47.29-.312.436-.698.436-1.156 0-.453-.148-.837-.444-1.152-.295-.316-.67-.473-1.123-.473-.453 0-.825.156-1.115.469-.291.313-.436.698-.436 1.156 0 .453.147.838.443 1.153zM28.2153 48.6913v-5.172h1.138v2.047h2.098v-2.047h1.138v5.172h-1.138v-2.076h-2.098v2.076h-1.138zM33.8306 48.6913v-5.172h1.138v2.047h2.098v-2.047h1.138v5.172h-1.138v-2.076h-2.098v2.076h-1.138zM39.4453 48.6913v-5.172h1.138v1.758h1.101c.591 0 1.054.152 1.389.455.335.303.502.71.502 1.223 0 .532-.176.954-.528 1.267-.352.313-.831.469-1.437.469h-2.165zm2.143-2.438h-1.005v1.411h1.012c.567 0 .85-.241.85-.724 0-.458-.286-.687-.857-.687zm2.564 2.438h1.138v-5.172h-1.138v5.172z" clip-rule="evenodd"/>
  <path stroke="#000" stroke-linejoin="round" stroke-width="1.5" d="M19.479 19.645V15h4.645m14.41 0h4.645v4.645L38.534 15zm-14.41 23.7h-4.645v-4.645l4.645 4.645zm19.055-4.645V38.7h-4.645l4.645-4.645z"/>
  <path fill="#2BA84B" fill-rule="evenodd" d="M23.1396 34.1261v-10.047h2.283l3.14 4.662 3.159-4.662h2.283v10.047h-2.321v-6.698l-3.159 4.51-3.14-4.472v6.66h-2.245zM38.0614 27.9227c-1.235 0-2.226-.455-2.973-1.365l.954-.887c.576.681 1.257 1.021 2.041 1.021.392 0 .714-.11.965-.328.252-.218.378-.508.378-.871 0-.377-.162-.671-.483-.882-.322-.21-.757-.316-1.304-.316h-.632l-.222-.854 2.097-2.23h-3.362v-1.187h5.137v1.021l-2.163 2.219c.68.095 1.231.323 1.653.682.421.358.632.867.632 1.525 0 .717-.254 1.306-.76 1.764-.507.459-1.159.688-1.958.688z" clip-rule="evenodd"/>
  <path stroke="#2BA84B" stroke-dasharray="0.09 3.08" stroke-linecap="round" stroke-linejoin="round" stroke-width="1.5" d="M60.8435 34.5748c-1.6979 14.3228-13.4675 25.5585-28.029 26.4253m-5.3892-.1563C13.1025 59.1459 1.86676 47.3764 1 32.8148m.15576-5.3896C2.85369 13.1025 14.6233 1.86676 29.1848 1m5.3899.15613C48.8975 2.85406 60.1332 14.6236 61 29.1851"/>
</svg>
