<svg xmlns="http://www.w3.org/2000/svg" fill="none" viewBox="0 0 166 50">
  <path fill="#66A751" d="M0 48.8652h41.2766v-9.8581H8.93617V10.5674H41.2766V0H0V48.8652z"/>
  <path fill="#000" d="M159.579 15.1297h.579c.389 0 .67-.072.844-.2162.175-.1442.262-.3581.262-.6417 0-.2884-.094-.4953-.283-.6209-.188-.1255-.472-.1883-.851-.1883h-.551v1.6671zm0 .6906v2.0368h-.833v-5.099h1.44c.658 0 1.145.1232 1.462.3697.316.2465.474.6185.474 1.1161 0 .6347-.33 1.087-.991 1.3567l1.441 2.2565h-.949l-1.221-2.0368h-.823z"/>
  <path fill="#000" fill-rule="evenodd" d="M160.357 20c2.564 0 4.643-2.0787 4.643-4.6429 0-2.5641-2.079-4.6428-4.643-4.6428-2.564 0-4.643 2.0787-4.643 4.6428 0 2.5642 2.079 4.6429 4.643 4.6429zm0 .7143c2.959 0 5.357-2.3985 5.357-5.3572 0-2.9586-2.398-5.3571-5.357-5.3571S155 12.3985 155 15.3571c0 2.9587 2.398 5.3572 5.357 5.3572z" clip-rule="evenodd"/>
  <path fill="#000" d="M28.6525 27.5887c-.1419 1.773-.7802 3.1205-1.9149 4.1134-1.1348.9929-2.6241 1.4894-4.4681 1.4894-1.2766 0-2.4823-.2837-3.4752-.922-.9929-.6383-1.773-1.4894-2.2695-2.6241-.5674-1.1348-.851-2.4823-.851-3.9716v-1.5603c0-1.5603.2836-2.9078.851-4.1135.5674-1.2057 1.3475-2.0567 2.3404-2.695.9929-.6383 2.1986-.922 3.5461-.922 1.7731 0 3.2624.4964 4.3972 1.4894 1.1347.9929 1.773 2.3404 1.9149 4.1844h-2.8369c-.1418-1.2057-.4964-2.0568-1.0638-2.5532-.5674-.4965-1.3475-.7802-2.4114-.7802-1.2056 0-2.1985.4255-2.8368 1.3475-.6383.922-.9929 2.1986-.9929 3.9717v1.4184c0 1.7731.2836 3.1206.9219 4.0426.6383.9219 1.5603 1.4184 2.766 1.4184 1.1347 0 1.9858-.2837 2.5532-.7801.5674-.4965.922-1.3476 1.0638-2.4823h2.766v-.0709zM41.773 32.9078h-2.7659v-9.9291h-4.7518v9.9291h-2.766V20.7802H41.773v12.1276zM50.6383 33.1206c-1.7022 0-3.1206-.5674-4.1844-1.6312-1.0639-1.0639-1.6312-2.5532-1.6312-4.3263v-.3546c0-1.2057.2127-2.2695.7092-3.2624.4964-.922 1.1347-1.7021 1.9858-2.1986.8511-.4964 1.7731-.7801 2.8369-.7801 1.6312 0 2.9078.4964 3.8298 1.5603.922 1.0638 1.3475 2.5532 1.3475 4.4681v1.1347h-7.9433c.0709.9929.4256 1.7731.9929 2.4114.5674.5673 1.3476.851 2.1986.851 1.2766 0 2.2695-.4964 3.0497-1.4893l1.4893 1.4184c-.4964.7092-1.1347 1.2766-1.9858 1.7021-.7801.2837-1.7021.4965-2.695.4965zm-.3546-10.4256c-.7802 0-1.3476.2837-1.844.7802-.4255.4964-.7802 1.2766-.8511 2.1986h5.1773v-.2128c-.0709-.922-.2837-1.6312-.7092-2.0567-.4255-.4256-.9929-.7093-1.773-.7093zM58.2978 20.7802h2.766v10h4.7518v-10h2.7659v10h1.6312L70 36.5958h-2.4823v-3.6171h-9.2199V20.7802zM80.2837 20.7802h2.695v12.1985h-2.695v-8.156l-4.7518 8.0851h-2.6951V20.7802h2.6951v8.0851l4.7518-8.0851zM93.7588 32.9078c-.1418-.2128-.2127-.6383-.2837-1.1347-.851.9219-1.9149 1.3475-3.1915 1.3475-1.2056 0-2.1985-.3546-2.9787-1.0639-.7801-.7092-1.1347-1.5602-1.1347-2.5531 0-1.2766.4964-2.2695 1.4184-2.9788.9929-.7092 2.3404-1.0638 4.1135-1.0638h1.7021v-.7801c0-.6383-.1418-1.1348-.4964-1.4894s-.922-.5674-1.6312-.5674c-.6383 0-1.1348.1419-1.5603.4965-.4256.2837-.5674.7092-.5674 1.2057h-2.766c0-.6383.2128-1.2766.6383-1.844.4256-.5674 1.0639-1.0638 1.7731-1.3475.7801-.3546 1.6312-.4965 2.5532-.4965 1.4184 0 2.5532.3546 3.4042 1.0638.8511.7093 1.2766 1.7022 1.2766 3.0497v5.461c0 1.0638.1419 1.9858.4256 2.6241v.2128h-2.6951v-.1419zm-3.0496-1.9858c.5674 0 1.0638-.1419 1.4893-.4255.4965-.2837.8511-.6383 1.0639-1.0639v-2.2695H91.773c-.9929 0-1.773.1419-2.2695.4965-.4964.3546-.7801.851-.7801 1.4893 0 .4965.1418.922.4964 1.2766.4965.3547.922.4965 1.4894.4965zM109.858 20.7802v12.1985h-2.766v-9.929h-3.475l-.213 4.2553c-.142 2.0567-.567 3.4751-1.205 4.3971-.639.922-1.632 1.3476-2.9083 1.3476h-.7801v-2.2695l.5674-.071c.5673-.0709 1.064-.4255 1.277-1.0638.283-.6383.425-1.844.496-3.5461l.213-5.1773h8.794v-.1418zM120.922 20.7802h2.695v12.1985h-2.695v-8.156l-4.752 8.0851h-2.766V20.7802h2.695v8.0851l4.823-8.0851zM132.128 30.9929c.709 0 1.276-.2127 1.702-.5674.425-.4255.709-.9219.709-1.4893h2.553c0 .7801-.284 1.4893-.709 2.1276-.426.6383-1.064 1.2057-1.773 1.5603-.78.3546-1.56.5674-2.482.5674-1.703 0-3.05-.5674-4.043-1.6312-.993-1.1348-1.489-2.6241-1.489-4.539v-.2837c0-1.844.496-3.3333 1.489-4.4681.993-1.1347 2.34-1.7021 4.043-1.7021 1.418 0 2.624.4255 3.546 1.2766.922.851 1.418 1.9858 1.418 3.3333h-2.553c0-.7092-.284-1.2766-.709-1.7021-.426-.4255-.993-.7092-1.702-.7092-.851 0-1.561.3546-2.057.9929-.497.6383-.709 1.6312-.709 2.9078v.4255c0 1.3475.212 2.2695.709 2.9787.425.5674 1.135.922 2.057.922zM149.291 22.9078h-3.972v10h-2.766v-10h-3.901v-2.1986h10.568v2.1986h.071zM50.4964 48.0142h-1.4893v-3.0497h-2.9078v3.0497h-1.4894v-7.1631h1.4894v2.9078h2.9078v-2.9078h1.4893v7.1631zM55.0354 48.0851c-.7801 0-1.4184-.2128-1.9149-.7092-.4964-.4965-.7092-1.1348-.7092-1.9149v-.1419c0-.5673.0709-.9929.2837-1.4184.2128-.4255.4964-.7801.8511-.9929.3546-.2128.7801-.3546 1.2766-.3546.7092 0 1.2766.2128 1.7021.7092.4255.4965.6383 1.1348.6383 1.9858v.5674h-3.3334c.071.3546.2128.6383.4256.8511.2127.2127.4964.2837.851.2837.5674 0 .9929-.2128 1.2766-.5674l.7093.7801c-.2128.2837-.4965.5674-.8511.7092-.4255.1419-.7802.2128-1.2057.2128zm-.2127-4.3972c-.2837 0-.4965.071-.7093.2837-.1418.2128-.2837.4965-.3546.8511h1.9858v-.1418c0-.2837-.0709-.5674-.2836-.7093-.071-.1418-.2837-.2837-.6383-.2837zM58.9361 46.8085c.3546-.3546.5674-.7092.6383-.9929.1419-.3546.2128-.7801.2128-1.4184l.0709-1.7731h3.9007v4.1844h.7802v2.766h-1.4185v-1.6312H60v1.6312h-1.4185v-2.766h.3546zm1.7022 0h1.7021v-2.9787h-1.1348v.6383c0 .9929-.2127 1.773-.5673 2.3404zM70.851 45.3901c0 .851-.2128 1.4893-.5674 1.9858-.3546.4964-.851.7092-1.4893.7092-.5674 0-.9929-.2128-1.2766-.5674V50h-1.4185v-7.305h1.3476l.0709.4965c.3546-.4255.7801-.6383 1.3475-.6383.6383 0 1.1348.2128 1.5603.7092.3546.4965.5674 1.1348.5674 1.9858v.1419h-.1419zm-1.4184-.1419c0-.4964-.0709-.851-.2837-1.1347-.1419-.2837-.4255-.4256-.7802-.4256-.4255 0-.7801.1419-.9219.4965v2.1986c.1418.3546.4964.4964.9219.4964.7093.071 1.0639-.4964 1.0639-1.6312zM72.4113 45.2482c0-.4964.0709-.9929.2837-1.4184.2127-.4255.4964-.7092.851-.9929.3547-.2128.8511-.3546 1.3476-.3546.7092 0 1.2766.2127 1.773.6383.4255.4255.7092 1.0638.7802 1.773v.3546c0 .8511-.2128 1.4894-.7093 1.9858-.4255.4965-1.0638.7093-1.8439.7093-.7802 0-1.3476-.2128-1.844-.7093-.4255-.3546-.6383-1.0638-.6383-1.9858zm1.4184.1419c0 .4964.071.922.2837 1.1347.2128.2837.4965.4256.8511.4256.3546 0 .6383-.1419.7801-.4256.2128-.2837.2837-.7092.2837-1.2766 0-.4964-.0709-.851-.2837-1.1347-.2127-.2837-.4964-.4256-.851-.4256-.3546 0-.6383.1419-.7802.4256-.2127.2837-.2837.7092-.2837 1.2766zM83.8297 48.0142h-1.4184v-4.1844h-1.7731v4.1844h-1.4184V42.695h4.6099v5.3192zM85.6028 45.2482c0-.4964.0709-.9929.2837-1.4184.2127-.4255.4964-.7092.851-.9929.3546-.2128.8511-.3546 1.3475-.3546.7093 0 1.2766.2127 1.7731.6383.4255.4255.7092 1.0638.7801 1.773v.3546c0 .8511-.2127 1.4894-.7092 1.9858-.4255.4965-1.0638.7093-1.844.7093-.7801 0-1.3475-.2128-1.8439-.7093-.4256-.3546-.6383-1.0638-.6383-1.9858zm1.4184.1419c0 .4964.0709.922.2837 1.1347.2128.2837.4965.4256.8511.4256.3546 0 .6383-.1419.7801-.4256.2128-.2837.2837-.7092.2837-1.2766 0-.4964-.0709-.851-.2837-1.1347-.2128-.2837-.4964-.4256-.8511-.4256-.3546 0-.6383.1419-.7801.4256-.1418.2837-.2837.7092-.2837 1.2766zM96.9503 42.695v5.3192h-1.4184v-4.1844h-1.2766l-.071 1.6312c-.0709.8511-.2127 1.4894-.4964 1.9149s-.7092.6383-1.2766.6383h-.4965v-1.1348h.1419c.2837 0 .4255-.1418.5674-.4255.1418-.2837.2127-.7801.2127-1.4184l.0709-2.2695h4.0426v-.071zM101.489 44.2553c.426 0 .851.0709 1.206.2128.355.1418.638.3546.78.6383.213.2837.284.6383.284.9929 0 .5674-.213.9929-.639 1.3475-.425.3546-.992.4965-1.702.4965h-2.411V42.695h1.418v1.5603h1.064zm-.993 2.6241h.993c.284 0 .497-.0709.639-.2127.141-.1419.212-.2837.212-.5674 0-.2128-.071-.4255-.212-.5674-.142-.1418-.355-.2128-.639-.2128h-.993v1.5603zM108.298 44.2553c0-.2127-.071-.3546-.213-.4255-.142-.0709-.284-.1419-.496-.1419-.213 0-.426.071-.568.1419-.142.0709-.213.2128-.213.4255h-1.418c0-.4964.213-.851.567-1.2057.426-.2836.922-.4255 1.561-.4255.709 0 1.205.1419 1.631.4255.425.2837.567.6383.567 1.1348 0 .2128-.071.4255-.213.6383-.141.2128-.354.3546-.638.4964.638.2128.922.6384.922 1.2057 0 .4965-.213.8511-.638 1.1348-.426.2837-.993.4255-1.702.4255-.639 0-1.206-.1418-1.561-.4255-.425-.2837-.638-.7092-.638-1.2057h1.419c0 .2128.071.3546.212.4255.142.1419.355.1419.639.1419.283 0 .425-.0709.567-.1419.142-.0709.213-.2837.213-.4964 0-.2128-.071-.4256-.213-.4965-.142-.0709-.355-.1418-.638-.1418h-.78v-.922h.851c.567 0 .78-.2128.78-.5674zM111.347 45.2482c0-.4964.071-.9929.284-1.4184.213-.4255.497-.7092.851-.9929.355-.2128.851-.3546 1.348-.3546.709 0 1.276.2127 1.773.6383.425.4255.709 1.0638.78 1.773v.3546c0 .8511-.213 1.4894-.709 1.9858-.426.4965-1.064.7093-1.844.7093s-1.348-.2128-1.844-.7093c-.426-.3546-.639-1.0638-.639-1.9858zm1.419.1419c0 .4964.071.922.284 1.1347.212.2837.496.4256.851.4256.354 0 .638-.1419.78-.4256.213-.2837.283-.7092.283-1.2766 0-.4964-.07-.851-.283-1.1347-.213-.2837-.497-.4256-.851-.4256-.355 0-.639.1419-.78.4256-.213.2837-.284.7092-.284 1.2766zM118.227 48.0142V42.695h2.198c.71 0 1.277.1419 1.703.3546.354.2837.567.6383.567 1.1348 0 .2128-.071.4965-.213.6383-.142.2128-.425.3546-.709.4255.355.071.709.2128.922.4256.213.2127.355.4964.355.7801 0 .4965-.213.8511-.568 1.1348-.354.2836-.922.3546-1.631.3546h-2.624v.0709zm1.418-3.1915h.851c.497 0 .781-.1418.781-.4965 0-.2127-.071-.3546-.213-.4255-.142-.0709-.355-.1418-.639-.1418h-.78v1.0638zm0 .922v1.0638h1.135c.497 0 .78-.1418.78-.4964 0-.3547-.213-.5674-.709-.5674h-1.206zM127.801 48.0142c-.071-.1419-.141-.2837-.141-.4965-.355.3546-.781.5674-1.348.5674-.496 0-.922-.1418-1.277-.4255-.354-.2837-.496-.7092-.496-1.1348 0-.5673.213-.9929.638-1.2766.426-.2837.993-.4255 1.844-.4255h.639v-.2837c0-.2128-.071-.4255-.213-.5674-.142-.1418-.355-.2127-.568-.2127-.212 0-.425.0709-.567.1418-.142.1419-.213.2837-.213.4965h-1.418c0-.2837.071-.5674.283-.8511.213-.2837.426-.4964.781-.6383.354-.1418.709-.2128 1.205-.2128.639 0 1.206.1419 1.561.4965.354.3546.567.7801.567 1.4184v2.3405c0 .4964.071.9219.213 1.1347v.0709h-1.49v-.1418zm-1.134-.9929c.212 0 .425-.0709.567-.1419.142-.0709.284-.2127.426-.3546v-.9929h-.497c-.709 0-1.064.2128-1.135.7092v.071c0 .1418.071.3546.213.4255 0 .2128.213.2837.426.2837zM135.674 48.0142h-1.419v-2.0568h-1.773v2.0568h-1.418V42.695h1.418v2.1277h1.773V42.695h1.419v5.3192zM140.851 42.695h1.418v5.3192h-1.418v-3.2624l-1.773 3.2624h-1.419V42.695h1.419v3.2624l1.773-3.2624zM146.737 48.0851c-.78 0-1.418-.2127-1.914-.7092-.497-.4964-.71-1.1347-.71-1.9149v-.1418c0-.5674.071-.9929.284-1.4185.213-.4255.497-.7801.851-.9929.355-.2127.78-.3546 1.277-.3546.709 0 1.276.2128 1.702.7092.425.4256.638 1.1348.638 1.9858v.5674h-3.404c.071.3546.213.6383.425.8511.213.2128.497.2837.851.2837.568 0 .993-.2128 1.277-.5674l.709.7801c-.212.2837-.496.5674-.851.7093-.283.1418-.709.2127-1.135.2127zm-.212-4.3971c-.284 0-.497.0709-.71.2837-.141.2127-.283.4964-.354.851h1.986v-.1418c0-.2837-.071-.5674-.284-.7092-.071-.1419-.284-.2837-.638-.2837z"/>
</svg>
